["African Grey",
"Amazon",
"Bluebird",
"Brotogeris",
"Budgie / Budgerigar",
"Budgie",
"Budgerigar",
"Button-Quail",
"Caique",
"Canary",
"Chicken",
"Cockatiel",
"Cockatoo",
"Conure",
"Dove",
"Duck",
"Eclectus",
"Emu",
"Finch",
"Goose",
"Guinea Fowl",
"Kakariki",
"Lory / Lorikeet",
"Lorikeet",
"Lory",
"Lovebird",
"Macaw",
"Ostrich",
"Parakeet (Other)",
"Parrot (Other)",
"Parrotlet",
"Peacock",
"Peafowl",
"Pheasant",
"Pigeon",
"Pionus",
"Poicephalus",
"Senegal",
"Swallow",
"Quail",
"Quaker Parakeet",
"Rhea",
"Ringneck",
"Psittacula",
"Raven",
"Rosella",
"Robin",
"Swan",
"Toucan",
"Turkey"]