["Abyssinian",
"American Curl",
"American Shorthair",
"American Wirehair",
"Applehead Siamese",
"Balinese",
"Bengal",
"Birman",
"Bobtail",
"Bombay",
"British Shorthair",
"Burmese",
"Burmilla",
"Calico",
"Canadian Hairless",
"Chartreux",
"Chausie",
"Chinchilla",
"Cornish Rex",
"Cymric",
"Devon Rex",
"Dilute Calico",
"Dilute Tortoiseshell",
"Domestic Long Hair",
"Domestic Long Hair (Black & White)",
"Domestic Long Hair (Black)",
"Domestic Long Hair (Brown)",
"Domestic Long Hair (Buff & White)",
"Domestic Long Hair (Buff)",
"Domestic Long Hair (Gray & White)",
"Domestic Long Hair (Gray)",
"Domestic Long Hair (Orange & White)",
"Domestic Long Hair (Orange)",
"Domestic Long Hair (White)",
"Domestic Medium Hair",
"Domestic Medium Hair (Black & White)",
"Domestic Medium Hair (Black)",
"Domestic Medium Hair (Brown)",
"Domestic Medium Hair (Buff & White)",
"Domestic Medium Hair (Buff)",
"Domestic Medium Hair (Gray & White)",
"Domestic Medium Hair (Gray)",
"Domestic Medium Hair (Orange & White)",
"Domestic Medium Hair (Orange)",
"Domestic Medium Hair (White)",
"Domestic Short Hair",
"Domestic Short Hair (Black & White)",
"Domestic Short Hair (Black)",
"Domestic Short Hair (Brown)",
"Domestic Short Hair (Buff & White)",
"Domestic Short Hair (Buff)",
"Domestic Short Hair (Gray & White)",
"Domestic Short Hair (Gray)",
"Domestic Short Hair (Mitted)",
"Domestic Short Hair (Orange & White)",
"Domestic Short Hair (Orange)",
"Domestic Short Hair (White)",
"Egyptian Mau",
"Exotic Shorthair",
"Extra-Toes Cat / Hemingway Polydactyl",
"Extra-Toes Cat",
"Hemingway Polydactyl",
"Havana",
"Himalayan",
"Japanese Bobtail",
"Javanese",
"Korat",
"LaPerm",
"Maine Coon",
"Manx",
"Munchkin",
"Nebelung",
"Norwegian Forest Cat",
"Ocicat",
"Oriental Long Hair",
"Oriental Short Hair",
"Oriental Tabby",
"Persian",
"Pixie-Bob",
"Ragamuffin",
"Ragdoll",
"Russian Blue",
"Scottish Fold",
"Selkirk Rex",
"Siamese",
"Siberian",
"Silver",
"Singapura",
"Snowshoe",
"Somali",
"Sphynx / Hairless Cat",
"Sphynx",
"Hairless Cat",
"Tabby",
"Tabby (Black)",
"Tabby (Brown)",
"Tabby (Buff)",
"Tabby (Gray)",
"Tabby (Orange)",
"Tabby (White)",
"Tiger",
"Tonkinese",
"Torbie",
"Tortoiseshell",
"Turkish Angora",
"Turkish Van",
"Tuxedo"]